<svg xmlns="http://www.w3.org/2000/svg" width="352" height="30" viewBox="0 0 352 30">
  <g fill="none" fill-rule="evenodd">
    <path d="M-20-6h89v42h-89z"/>
    <path fill="#7D8485" d="M14.298 24.193c-1.096 1.37-2.795 2.247-4.697 2.247-3.31 0-5.99-2.66-5.99-5.937 0-3.28 2.69-5.936 6-5.936 1.8 0 3.42.783 4.51 2.03l2.25-2.832c-1.73-1.71-4.12-2.762-6.76-2.762-5.3 0-9.6 4.255-9.6 9.5C0 25.75 4.3 30 9.6 30c2.65 0 5.05-1.063 6.785-2.777l-2.087-3.03zm4.01-12.805h4.05V29.79h-4.05v-18.4zm22.085.096h4.05v18.404h-4.05V11.484zm-6.93 18.495c-3.48 0-4.314-2.95-4.4-4.61h-.024V14.86h-3.56v-3.374h3.56v-3.57l3.6-2.172-.1 2.737v3.01h3.66v3.38h-3.65v9.33c-.03.13-.04.27-.04.4s.01.27.03.4v.21c.13.82.69 1.49 1.44 1.81.29.13.61.2.95.2.76 0 1.43-.34 1.88-.88.1-.12.19-.25.26-.39s.072 4.04-3.63 4.04zM32.036 0C25.166 0 19.11 3.464 15.56 8.724h5.73c2.77-2.68 6.566-4.337 10.746-4.337 4.18 0 7.977 1.657 10.747 4.337h5.728C44.96 3.464 38.91 0 32.04 0z"/>
    <path d="M166-6h70v42h-70z"/>
    <path fill="#7D8485" d="M199.294 29.903c.56.064 1.13.097 1.706.097 8.262 0 15-6.738 15-15s-6.738-15-15-15c-.55 0-1.092.03-1.626.088.18-.02.36-.036.543-.05l-2.882 7.975h2.52c1.816 0 2.555 1.412 2.008 3.015l-3.71 10.264h-3.707l4.082-11.295h-1.91l-4.082 11.295h-3.74L195.86.91C190.117 3.014 186 8.54 186 15c0 6.972 4.798 12.86 11.262 14.527l7.786-21.572h2.178v4.332l-2.717 7.527h1.87l.84-2.32v4.282h-3.42l-2.97 8.222c-.52-.006-1.03-.038-1.54-.095zm7.932-21.948h3.91c1.26 0 2.804.83 2.153 2.76-.66 1.934-3.01 8.363-3.44 9.59-.44 1.225-1.48 1.47-2.31 1.47h-.32v-4.28l2.71-7.527h-1.88l-.84 2.32V7.954z"/>
    <path d="M236-6h136v42H236z"/>
    <path fill="#7D8485" d="M266.142 14.025l-.65 4.285h2.993c-.482 1.106-1.883 1.588-2.92 1.588-2.15 0-3.12-1.877-2.817-3.874.333-2.192 1.944-4.213 4.31-4.213 1.063 0 1.93.49 2.3 1.4l6.525-2.26c-.953-3.1-5.062-4.67-8.225-4.67-5.723 0-10.635 3.57-11.534 9.49-.886 5.83 3.086 9.24 8.64 9.24 2.824 0 5.967-1.13 8.217-3.22 2.5-2.31 2.88-4.79 3.38-7.75h-10.21zM281.762 5c-1.957 0-3.602 1.13-3.883 2.984-.32 2.093 1.18 3.008 2.97 3.008 1.78 0 3.56-.915 3.88-3.008C285.02 6.13 283.71 5 281.76 5zm-6.112 19.713h6.23l1.943-12.78h-6.23l-1.943 12.78zm8.314 0h6.23l2.965-19.52h-6.23l-2.97 19.52zm8.098 0h6.23l2.966-19.52h-6.23l-2.966 19.52zm14.913-7.992c.138-.89.712-1.66 1.653-1.66.894 0 1.402.8 1.27 1.66h-2.923zm8.654 2.65c1.04-4.79-2.11-7.72-6.68-7.72-4.08 0-7.77 2.65-8.41 6.89-.67 4.41 2.71 6.48 6.74 6.48 2.94 0 6.62-1.42 7.9-4.5h-6.06c-.22.61-.77 1.06-1.42 1.06-1.31 0-1.3-1.15-1.14-2.18h9.05zm9.92-11.55h-6.28l-.65 4.29-1.51-.09-.75 4.89 1.54-.12-1.21 7.95h6.28l1.2-7.94 2.06.12.74-4.883-2.09.096.65-4.282zm10.5 0h-6.28l-.65 4.29-1.51-.09-.75 4.89 1.54-.12-1.21 7.95h6.28l1.2-7.94 2.06.12.74-4.883-2.09.096.65-4.282zm7.09 8.91c.13-.89.71-1.66 1.65-1.66.89 0 1.4.8 1.27 1.66h-2.93zm8.65 2.65c1.04-4.79-2.11-7.73-6.68-7.73-4.08 0-7.77 2.65-8.41 6.89-.67 4.41 2.71 6.48 6.74 6.48 2.94 0 6.61-1.42 7.9-4.5h-6.06c-.22.6-.77 1.06-1.42 1.06-1.31 0-1.3-1.15-1.14-2.19h9.05z"/>
    <path d="M69-6h97v42H69z"/>
    <path fill="#7D8485" d="M105.097 19.934h2.496v9.89h-2.496v-9.89zm22.62 2.834c-.102-.053-.905-.53-2.1-.53-1.61 0-2.733 1.124-2.733 2.64 0 1.47 1.073 2.64 2.732 2.64 1.175 0 1.994-.466 2.1-.526v2.656c-.314.087-1.164.352-2.275.352-2.8 0-5.26-1.936-5.26-5.123 0-2.954 2.23-5.12 5.27-5.12 1.18 0 2.04.285 2.28.355v2.656zm-26.05 0c-.1-.053-.902-.53-2.098-.53-1.62 0-2.74 1.124-2.74 2.64 0 1.47 1.07 2.64 2.73 2.64 1.17 0 1.98-.466 2.1-.526v2.656c-.32.087-1.17.352-2.28.352-2.81 0-5.27-1.936-5.27-5.123 0-2.954 2.23-5.12 5.26-5.12 1.17 0 2.04.285 2.28.355v2.656zm39.127 2.11c0 2.83-2.183 5.122-5.223 5.122s-5.22-2.293-5.22-5.123c0-2.825 2.18-5.12 5.23-5.12 3.04 0 5.23 2.295 5.23 5.12zm-5.223-2.602c-1.48 0-2.58 1.165-2.58 2.6 0 1.44 1.1 2.604 2.59 2.604 1.48 0 2.58-1.165 2.58-2.603 0-1.436-1.1-2.6-2.57-2.6zm-18.51-.095c-.03-.01-1.09-.3-1.95-.3-1 0-1.54.34-1.54.81 0 .61.74.82 1.14.95l.69.22c1.62.52 2.36 1.63 2.36 2.83 0 2.49-2.18 3.32-4.09 3.32-1.33 0-2.57-.24-2.69-.27v-2.28c.23.06 1.27.37 2.36.37 1.24 0 1.81-.36 1.81-.92 0-.5-.49-.79-1.11-.98-.15-.05-.37-.12-.53-.18-1.39-.44-2.55-1.25-2.55-2.89 0-1.85 1.39-3.09 3.69-3.09 1.22 0 2.36.3 2.43.32v2.11zM91.48 9.31c0-.68-.557-1.232-1.24-1.232-.68 0-1.238.554-1.238 1.233v2.59c0 .69.557 1.24 1.24 1.24.68 0 1.238-.55 1.238-1.24V9.31zm6.805-3.41c0-.68-.558-1.236-1.238-1.236-.683 0-1.24.556-1.24 1.236v6c0 .686.557 1.24 1.24 1.24.68 0 1.238-.554 1.238-1.24V5.896zm6.81-4.663c0-.68-.56-1.234-1.24-1.234-.685 0-1.243.554-1.243 1.235V14.37c0 .683.558 1.235 1.243 1.235.68 0 1.24-.552 1.24-1.236V1.23zm6.8 4.662c0-.68-.552-1.24-1.237-1.24-.68 0-1.24.55-1.24 1.23v6c0 .68.56 1.24 1.24 1.24.685 0 1.238-.56 1.238-1.24v-6zm6.803 3.4c0-.68-.557-1.23-1.232-1.23-.686 0-1.24.55-1.24 1.23v2.6c0 .68.554 1.24 1.24 1.24.675 0 1.232-.56 1.232-1.24V9.3zm6.81-3.41c0-.68-.554-1.24-1.24-1.24-.68 0-1.232.55-1.232 1.23v6c0 .68.552 1.24 1.232 1.24.686 0 1.24-.56 1.24-1.24v-6zm6.807-4.67c0-.68-.553-1.24-1.234-1.24-.68 0-1.24.55-1.24 1.23v13.14c0 .68.56 1.23 1.24 1.23.68 0 1.24-.55 1.24-1.237V1.23zm6.808 4.66c0-.68-.55-1.24-1.247-1.24-.68 0-1.232.55-1.232 1.23v6c0 .68.553 1.24 1.233 1.24.697 0 1.25-.56 1.25-1.24v-6zm5.567 2.17c-.686 0-1.24.55-1.24 1.23v2.6c0 .68.554 1.24 1.24 1.24.68 0 1.232-.56 1.232-1.24V9.3c0-.68-.554-1.232-1.233-1.232z"/>
  </g>
</svg>
